package rules.Assignment.GlobalClaimAssignmentRules_dir.TDIC_RiskManagement300000_dir

uses acc.onbase.util.LoggerFactory
uses gw.api.locale.DisplayKey
uses gw.api.database.Query

@gw.rules.RuleName("TDIC_GCA150000 - Risk Management Group")
internal class TDIC_GCA150000RiskManagementGroup {
  static function doCondition(claim : entity.Claim) : boolean {
/*start00rule*/
return true
/*end00rule*/
}

  static function doAction(claim : entity.Claim, actions : gw.rules.Action) {
/*start00rule*/
    var logger = LoggerFactory.getLogger("Assignment")
    var riskManagementGroup = Query.make(Group).compare(Group#Name, Equals, "Risk Management").select().FirstResult
    if(riskManagementGroup!=null){
      var claimAssigned = claim.CurrentAssignment.assign(riskManagementGroup, riskManagementGroup.Supervisor)
      if (claimAssigned) {
        logger.debug(DisplayKey.get("Rules.Assignment.Global.Claim", actions.Rule.DisplayName) + ", " + DisplayKey.get("Rules.Assignment.AssignedGroupIs", claim.AssignedGroup))
        actions.exit()
      }
    } else {
      logger.debug(DisplayKey.get("Rules.Assignment.Global.Claim", actions.Rule.DisplayName) + ", Risk Management group not found")
    }
/*end00rule*/
  }
}
