package rules.EventMessage.EventFired_dir.TDIC_EFR11000Sedgwick_dir.TDIC_EFR11100Claim_dir

uses gw.pl.logging.LoggerCategory
uses org.slf4j.LoggerFactory

@gw.rules.RuleName("TDIC_EFR11110-ClaimChanged")
internal class TDIC_EFR11110ClaimChanged {
  static function doCondition(messageContext : entity.MessageContext) : boolean {
/*start00rule*/
return messageContext.EventName == "ClaimChanged"
  and (messageContext.Root as Claim).LossType == LossType.TC_WC7
  and (messageContext.Root as Claim).State == typekey.ClaimState.TC_OPEN
  and (messageContext.Root as Claim).isFieldChanged(Claim#State)
  and not((messageContext.Root as Claim).getOriginalValue(Claim#State) == typekey.ClaimState.TC_CLOSED)
    and not ((messageContext.Root as Claim).RiskMgmtIncident_TDIC)
/*end00rule*/
}

  static function doAction(messageContext : entity.MessageContext, actions : gw.rules.Action) {
/*start00rule*/
/**
 * US568 - Sedgwick Feed
 * 10/29/2014 Praneethk
 * Event Fired rules to process claim when status change to draft to open
 */
var _logger = LoggerFactory.getLogger("TDIC_FEEDTOSEDGWICK")
 _logger.debug("Entering Event Fired Rules")
var claim =messageContext.Root as Claim
_logger.debug("Payload Status" + claim.PublicID + "' status changed to Open")
var payload= new tdic.cc.integ.plugins.sedgwick.gxmodel.tdic_sedgwickxmlmodel.Claim(claim).asUTFString()
_logger.debug("Payload Has Been Generated")
var msg=messageContext.createMessage(payload)
_logger.debug("Exiting Event Fired Rules")
/*end00rule*/
  }
}
