package rules.Reopened.ExposureReopened_dir

@gw.rules.RuleName("TDIC_ALL900000")
internal class TDIC_ALL900000 {
  static function doCondition(exposure : entity.Exposure) : boolean {
/*start00rule*/
return true
/*end00rule*/
}

  static function doAction(exposure : entity.Exposure, actions : gw.rules.Action) {
/*start00rule*/
 
/*end00rule*/
  }
}
