package rules.Preupdate.ClaimPreupdate_dir.TDIC_ALL900000_dir.CPU940000CustomHistoryCreation_dir

uses gw.api.locale.DisplayKey


@gw.rules.RuleName("CPU944000- Add History for Edit Loss Description")
internal class CPU944000AddHistoryforEditLossDescription {
  static function doCondition(claim : entity.Claim) : boolean {
/*start00rule*/
return claim.isFieldChanged("Description")
/*end00rule*/
}

  static function doAction(claim : entity.Claim, actions : gw.rules.Action) {
/*start00rule*/

      claim.createCustomHistoryEvent(TC_DATACHANGE,DisplayKey.get("Rules.PreUpdate.Claim.LossDescription"))
/*end00rule*/
  }
}
