package rules.Assignment.GlobalClaimAssignmentRules_dir

@gw.rules.RuleName("TDIC_RiskManagement300000")
internal class TDIC_RiskManagement300000 {
  static function doCondition(claim : entity.Claim) : boolean {
/*start00rule*/
return !claim.Policy.Verified
/*end00rule*/
}

  static function doAction(claim : entity.Claim, actions : gw.rules.Action) {
/*start00rule*/
 
/*end00rule*/
  }
}
