package rules.EventMessage.EventFired_dir.TDIC_ALL9000000_dir.TDIC_EFR9300000LawsonGeneralLedger_dir.TDIC_EFR9310000Reserve_dir
uses org.slf4j.LoggerFactory
uses tdic.cc.common.batch.generalledger.util.TDIC_GeneralLedgerHelper

@gw.rules.RuleName("TDIC_EFR9311000 - Submitted")
internal class TDIC_EFR9311000Submitted {
  static function doCondition(messageContext   :   entity.MessageContext) : boolean {
/*start00rule*/
var reserve =(messageContext.Root as Reserve)
    return messageContext.EventName == Reserve.RESERVESTATUSCHANGED_EVENT &&
        reserve.Status == TransactionStatus.TC_SUBMITTED && TDIC_GeneralLedgerHelper.isValidCostTypeForGL(reserve)
/*end00rule*/
}

  static function doAction(messageContext   :   entity.MessageContext, actions : gw.rules.Action) {
/*start00rule*/
var _logger = LoggerFactory.getLogger("TDIC_GeneralLedger")
    var reserve = messageContext.Root as Reserve

    _logger.debug(actions.getRule().DisplayName + " triggering -On Recovery [ PublicID:  ${reserve.PublicID}, " +
        " amount : ${reserve.Amount}")

    //Generate transaction payload from Reserve entity.
    var payloadXML = TDIC_GeneralLedgerHelper.getGLTransactionDTOPayload(reserve)

    //Send payloadXML
    messageContext.createMessage(payloadXML) 
/*end00rule*/
  }
}
