package rules.Postsetup.TransactionSetPostsetup_dir.TDIC_TPS30000_dir

@gw.rules.RuleDisabled
@gw.rules.RuleName("TPS31000 - Cross Center Activity for Recovery Reserve")
internal class TPS31000CrossCenterActivityforRecoveryReserve {
  static function doCondition(transactionSet : entity.TransactionSet) : boolean {
/*start00rule*/
return transactionSet typeis RecoveryReserveSet
/*end00rule*/
}

  static function doAction(transactionSet : entity.TransactionSet, actions : gw.rules.Action) {
/*start00rule*/
 var recoveryReserves = transactionSet as RecoveryReserveSet
    for(recoveryReserve in recoveryReserves.RecoveryReserves){
      if( recoveryReserve.RecoveryCategory == RecoveryCategory.TC_DEDUCTIBLE and
          recoveryReserve.Claim.Type_TDIC == ClaimType_TDIC.TC_PROFESSIONALLIABILITY and
          recoveryReserve.Claim.JurisdictionState == Jurisdiction.TC_NJ){
        //call to Billing Center should be made
      }
    }
/*end00rule*/
  }
}
