package rules.Segmentation.ClaimSegmentationRules_dir

@gw.rules.RuleDisabled
@gw.rules.RuleName("CSG01000 - Auto")
internal class CSG01000Auto {
  static function doCondition(claim : entity.Claim) : boolean {
    
/*start00rule*/
return claim.LossType == TC_AUTO
/*end00rule*/

  }

  static function doAction(claim : entity.Claim, actions : gw.rules.Action) {

/*start00rule*/
/* Run child rules */
/*end00rule*/

  }
}
