package rules.Postsetup.ClaimPostsetup_dir

@gw.rules.RuleName("TDIC_WC100000")
internal class TDIC_WC100000 {
  static function doCondition(claim : entity.Claim) : boolean {
/*start00rule*/
return claim.LossType == typekey.LossType.TC_WC7
/*end00rule*/
}

  static function doAction(claim : entity.Claim, actions : gw.rules.Action) {
/*start00rule*/
 
/*end00rule*/
  }
}
