package rules.Reopened.ClaimReopened_dir.TDIC_ALL900000_dir


@gw.rules.RuleName("CRO910000 - Notify External Systems")
internal class CRO910000NotifyExternalSystems {
  static function doCondition(claim  :  entity.Claim) : boolean {
/*start00rule*/
return true /* Always notify */
/*end00rule*/
}

  static function doAction(claim  :  entity.Claim, actions : gw.rules.Action) {
/*start00rule*/
    claim.getClaimOrginalClosedDate(claim)
    claim.addEvent("claim_reopened")
/*end00rule*/
  }
}
