package rules.Preupdate.TransactionSetPreupdate_dir.TDIC_TPU900000_dir


@gw.rules.RuleName("TPU960000 - Acknowledge RecoveryReserve")
internal class TPU960000AcknowledgeRecoveryReserve {
  static function doCondition(transactionSet  :  entity.TransactionSet) : boolean {
/*start00rule*/
return  transactionSet typeis RecoveryReserveSet
/*end00rule*/
}

  static function doAction(transactionSet  :  entity.TransactionSet, actions : gw.rules.Action) {
/*start00rule*/
var reserves =  transactionSet as RecoveryReserveSet
    for (res in reserves.RecoveryReserves.where( \ elt -> elt.Status ==  TransactionStatus.TC_SUBMITTING)){
      res.acknowledgeSubmission()
    } 
/*end00rule*/
  }
}
