package rules.Preupdate.TransactionSetPreupdate_dir.TDIC_TPU900000_dir


@gw.rules.RuleName("TPU930000 - Acknowledge Payment")
internal class TPU930000AcknowledgePayment {
  static function doCondition(transactionSet   :   entity.TransactionSet) : boolean {
/*start00rule*/
return transactionSet typeis CheckSet
/*end00rule*/
}

  static function doAction(transactionSet   :   entity.TransactionSet, actions : gw.rules.Action) {
/*start00rule*/
var checkSets = transactionSet as CheckSet

    for (check in checkSets.Checks) {
      for (payment in check.Payments) {
        //Acknowledge pending Payment record
        if(payment.Status == TransactionStatus.TC_PENDINGRECODE){
          payment.acknowledgeRecode()
        }

        //Acknowledge payments for checks
        if ((check.PaymentMethod == PaymentMethod.TC_CHECK &&
            payment.Status == TransactionStatus.TC_ISSUED) ||
            (check.PaymentMethod == PaymentMethod.TC_EFT &&
                payment.Status == TransactionStatus.TC_CLEARED)) {
          payment.acknowledgeSubmission()
        }
      }
      if(check.PaymentMethod == PaymentMethod.TC_MANUAL and check.Status == TransactionStatus.TC_PENDINGVOID ){
        check.updateCheckStatus(check.CheckNumber, null, TransactionStatus.TC_VOIDED)
      }
      if(check.PaymentMethod == PaymentMethod.TC_CHECK and check.Status == TransactionStatus.TC_PENDINGVOID ){
        check.updateCheckStatus(check.CheckNumber, null, TransactionStatus.TC_VOIDED)
      }
      if(check.Status == TransactionStatus.TC_PENDINGSTOP ){
        check.updateCheckStatus(check.CheckNumber ,null, TransactionStatus.TC_STOPPED)
      }
      //Acknowledge pending payment transfer
      if(check.Status ==  TransactionStatus.TC_PENDINGTRANSFER){
        check.acknowledgeTransfer()
      }
      //Acknowledge manual payments
      if(check.PaymentMethod == PaymentMethod.TC_MANUAL and
          check.Status == TransactionStatus.TC_NOTIFYING){
        check.acknowledgeSubmission()
      }

      if(check.Status ==  TransactionStatus.TC_REQUESTING and check.Claim.LossType == LossType.TC_WC7){
        check.acknowledgeSubmission()
      }


    } 
/*end00rule*/
  }
}
