package rules.Preupdate.TransactionSetPreupdate_dir.TDIC_TPU900000_dir

uses gw.api.database.Query
uses gw.api.database.Relop

@gw.rules.RuleName("TPU990000 - Create Activity After Reaches Reporting Threshold")
internal class TPU990000CreateActivityAfterReachesReportingThreshold {
  static function doCondition(transactionSet : entity.TransactionSet) : boolean {
/*start00rule*/
    var reinsuranceThresholdList = Query.make(ReinsuranceThreshold).compare(ReinsuranceThreshold#PolicyType , Relop.Equals , transactionSet?.Claim?.Policy?.PolicyType).select().toList()
    var reinsuranceThreshold = reinsuranceThresholdList.firstWhere(\elt -> elt.LossType == transactionSet.Claim?.LossType)
    if(reinsuranceThreshold != null) {
      var reportingThresholdAmount = (reinsuranceThreshold.ThresholdValue * reinsuranceThreshold.ReportingThreshold) / 100
      var totalPayments = gw.api.financials.FinancialsCalculations.getTotalPayments()
          .withClaim(transactionSet.Claim).Amount.Amount
      return totalPayments >= reportingThresholdAmount
    }
    return  false
/*end00rule*/
}

  static function doAction(transactionSet : entity.TransactionSet, actions : gw.rules.Action) {
/*start00rule*/
    if(!transactionSet.Claim.Activities.hasMatch(\ a -> a.ActivityPattern.Code == "invoice_not_auto_approved")) {
      var activity = transactionSet.Claim.createActivityFromPattern(null,ActivityPattern.finder.getActivityPatternByCode("invoice_not_auto_approved"))
      activity.Subject="Reached Reinsurance Threshold"
      var claimExecutive = transactionSet.Claim.getClaimExecutive()
      if(claimExecutive != null){
      activity.assign(claimExecutive.Group,claimExecutive.User)}
    }
/*end00rule*/
  }
}
