package rules.EventMessage.EventFired_dir.TDIC_ALL9000000_dir.TDIC_EFR9300000LawsonGeneralLedger_dir


@gw.rules.RuleName("TDIC_EFR9310000 - Reserve")
internal class TDIC_EFR9310000Reserve {
  static function doCondition(messageContext : entity.MessageContext) : boolean {
/*start00rule*/
return messageContext.Root typeis Reserve
/*end00rule*/
}

  static function doAction(messageContext : entity.MessageContext, actions : gw.rules.Action) {
/*start00rule*/
 
/*end00rule*/
  }
}
