package rules.Assignment.GlobalExposureAssignmentRules_dir

@gw.rules.RuleName("TDIC_WC100000")
internal class TDIC_WC100000 {
  static function doCondition(exposure : entity.Exposure) : boolean {
/*start00rule*/
return exposure.Claim.LossType == typekey.LossType.TC_WC7
/*end00rule*/
}

  static function doAction(exposure : entity.Exposure, actions : gw.rules.Action) {
/*start00rule*/
 
/*end00rule*/
  }
}
