package rules.Assignment.DefaultGroupActivityAssignmentRules_dir

uses gw.api.system.CCLoggerCategory
uses gw.api.locale.DisplayKey
uses org.slf4j.LoggerFactory

@gw.rules.RuleDisabled
@gw.rules.RuleName("DGA09000 - Default")
internal class DGA09000Default {
  static function doCondition(activity : entity.Activity) : boolean {
    
/*start00rule*/
/**
 * US532
 * 09/11/2014, robk
 *
 * Rule disabled as no activities are required for Release A.
 */
//return true
return false
/*end00rule*/

  }

  static function doAction(activity : entity.Activity, actions : gw.rules.Action) {

/*start00rule*/

activity.CurrentAssignment.assignManually(activity.CurrentAssignment.AssignedGroup.Supervisor)
LoggerFactory.getLogger("Assignment").debug(DisplayKey.get("Rules.Assignment.DefaultGroup.Activity", actions.ShortRuleName))
LoggerFactory.getLogger("Assignment").debug(DisplayKey.get("Rules.Assignment.AssignedUserIs", activity.AssignedUser))
actions.exit()
/*end00rule*/

  }
}
