package rules.Preupdate.ActivityPreupdate_dir
uses gw.api.database.Query
uses gw.api.locale.DisplayKey
uses gw.api.system.CCLoggerCategory
uses tdic.cc.config.assignment.AssignmentStrategyUtil
uses gw.api.util.DisplayableException

// GWNW -45 - Configure CC Queues
@gw.rules.RuleName("TDIC_ReviewAssignment")
internal class TDIC_ReviewAssignment {
  static function doCondition(activity : entity.Activity) : boolean {
/*start00rule*/
return activity.isFieldChanged(Activity#AssignedUser)
    and activity.isFieldChanged(Activity#AssignedQueue)
    and activity.AssignedUser!=null
/*end00rule*/
}

  static function doAction(activity : entity.Activity, actions : gw.rules.Action) {
/*start00rule*/
var assignedQueueValue = activity.getOriginalValue("AssignedQueue")
var assignedQueue = Query.make(AssignableQueue).compare(AssignableQueue#ID, Equals, assignedQueueValue).select().FirstResult
if(assignedQueue!=null and assignedQueue typeis AssignableQueue){
  var assignmentStrategyUtil = new AssignmentStrategyUtil()
  if(assignmentStrategyUtil.queueNotExistInStrategy(assignedQueue.Name)){
    activity.Claim.assign(activity.AssignedGroup, activity.AssignedUser)
    CCLoggerCategory.ASSIGNMENT.debug("TDIC_ReviewAssignment - claim assigned to group ${activity.AssignedGroup} and user ${activity.AssignedUser}")
  } else {
    if(activity.AssignedUser!=User.util.CurrentUser or perm.System.newclmqueueown_TDIC){
      activity.Claim.assign(activity.AssignedGroup, activity.AssignedUser)
      CCLoggerCategory.ASSIGNMENT.debug("TDIC_ReviewAssignment - claim assigned to group ${activity.AssignedGroup} and user ${activity.AssignedUser}")
    } else {
      throw new DisplayableException(DisplayKey.get("TDIC.Queue.Activity.InsufficientPermission", SystemPermissionType.TC_NEWCLMQUEUEOWN_TDIC ))
    }
  }
} else {
  CCLoggerCategory.ASSIGNMENT.error("Claim Assignment failed - due to assignedQueue incorrect value - ${assignedQueue}")
}
/*end00rule*/
  }
}
