package rules.Preupdate.ClaimPreupdate_dir.TDIC_ALL900000_dir.CPU940000CustomHistoryCreation_dir

uses gw.api.locale.DisplayKey

@gw.rules.RuleDisabled
@gw.rules.RuleName("CPU941000 - Add History for Loss Cause change")
internal class CPU941000AddHistoryforLossCausechange {
  static function doCondition(claim : entity.Claim) : boolean {
/*start00rule*/
    return claim.isFieldChanged("LossCause")
/*end00rule*/
}

  static function doAction(claim : entity.Claim, actions : gw.rules.Action) {
/*start00rule*/

    claim.createCustomHistoryEvent(TC_DATACHANGE, DisplayKey.get("Rules.PreUpdate.Claim.LossCauseHistoryDescription", claim.LossCause, claim.getOriginalValue("LossCause")))
/*end00rule*/
  }
}
