package rules.Preupdate.ClaimPreupdate_dir.TDIC_ALL900000_dir.CPU940000CustomHistoryCreation_dir

uses gw.api.locale.DisplayKey

@gw.rules.RuleName("CPU945000- Add History for Edits Claimants")
internal class CPU945000AddHistoryforEditsClaimants {
  static function doCondition(claim : entity.Claim) : boolean {
/*start00rule*/
return (claim.Contacts.hasMatch(\contact -> (!(contact.isNew())&&(contact.Contact.isChanged() && contact.isClaimant() )) ||
    ((contact.Contact.getPrimaryAddress() != null) && contact.Contact.getPrimaryAddress().isChanged() && contact.isClaimant() )))
    ||(claim.Exposures.hasMatch(\exp -> (exp.Claimant.isChanged() || exp.Claimant.PrimaryAddress.isChanged())&& !(exp.Claimant.isNew()) && (exp.Claimant.PrimaryAddress != null)) )

/*end00rule*/
}

  static function doAction(claim : entity.Claim, actions : gw.rules.Action) {
/*start00rule*/

    claim.createCustomHistoryEvent(CustomHistoryType.TC_DATACHANGE, DisplayKey.get("Rules.Validation.Exposure.ClaimantsEdit"))
/*end00rule*/
  }
}
