package rules.EventMessage.EventFired_dir.TDIC_ALL9000000_dir.EFR7100OnBase_dir

uses acc.onbase.api.si.MessageBuilder
uses acc.onbase.api.si.CCModelBuilder
uses gw.util.Base64Util
uses acc.onbase.api.security.SecurityManager


@gw.rules.RuleName("EFR7110DocumentAdded")
internal class EFR7110DocumentAdded {
  static function doCondition(messageContext : entity.MessageContext) : boolean {
/*start00rule*/
return messageContext.EventName== 'DocumentAdded'
/*end00rule*/
}

  static function doAction(messageContext : entity.MessageContext, actions : gw.rules.Action) {
/*start00rule*/
var document = messageContext.Root as Document

    if(document.DocumentIdentifier == "Imported from OnBase") {

      var builder = new MessageBuilder(messageContext.EventName)

      //Document GX Model requires a label argument; passing the DocAdded subset label
      var subsetLabel =acc.onbase.api.si.model.documentmodel.Document.Label.DocumentAddedSubset
      var documentModel = acc.onbase.api.si.model.documentmodel.Document.create(document, {subsetLabel})

      builder.addMessagePart('document', documentModel)

      var claimModel = CCModelBuilder.buildClaimModel(document.Claim)
      builder.addMessagePart('claim', claimModel)

      messageContext.createMessage(builder.Message.asUTFString())

    }

/*end00rule*/
  }
}
