package rules.Preupdate.ExposurePreupdate_dir


@gw.rules.RuleDisabled
@gw.rules.RuleName("EPU30000 - Property Claimant")
internal class EPU30000PropertyClaimant {
  static function doCondition(exposure : entity.Exposure) : boolean {
/*start00rule*/
return exposure.Claim.LossType == LossType.TC_PR
/*end00rule*/
}

  static function doAction(exposure : entity.Exposure, actions : gw.rules.Action) {
/*start00rule*/
if(exposure?.Claimant != null and (exposure.Claimant typeis Person)){
  print("### Claimant Name ###"+exposure.Claimant)
  exposure.Claim.claimant = exposure.Claimant as Person
}

/*end00rule*/
  }
}
