package rules.Preupdate.TransactionSetPreupdate_dir.TDIC_TPU900000_dir


@gw.rules.RuleName("TPU940000 - Acknowledge Recovery")
internal class TPU940000AcknowledgeRecovery {
  static function doCondition(transactionSet  :  entity.TransactionSet) : boolean {
/*start00rule*/
return transactionSet typeis RecoverySet
/*end00rule*/
}

  static function doAction(transactionSet  :  entity.TransactionSet, actions : gw.rules.Action) {
/*start00rule*/
var recoverySet = transactionSet as RecoverySet
    for (recovery in recoverySet.Recoveries) {
      if (recovery.Status == TransactionStatus.TC_SUBMITTING)
        recovery.acknowledgeSubmission()
      if(recovery.Status == TransactionStatus.TC_PENDINGRECODE)
        recovery.acknowledgeRecode()
      if(recovery.Status == TransactionStatus.TC_PENDINGTRANSFER)
        recovery.acknowledgeTransfer()
      if(recovery.Status == TransactionStatus.TC_PENDINGVOID)
        recovery.acknowledgeVoid()
    } 
/*end00rule*/
  }
}
