package rules.Archive.DefaultGroupClaimArchivingRules_dir

uses gw.api.locale.DisplayKey

@gw.rules.RuleDisabled
@gw.rules.RuleName("ARC04000 - Open Activities Rule")
internal class ARC04000OpenActivitiesRule {
  static function doCondition(claim : entity.Claim) : boolean {
    
/*start00rule*/
/**
 * US706
 * 09/24/2014, robk
 *
 * Rule disabled as no archiving in CC for Release A.
 */
//return gw.api.database.Query.make(Activity)
//                     .compare("Claim", Equals, claim)
//                     .compare("Status", Equals, ActivityStatus.TC_OPEN).select().Count > 0
return false
/*end00rule*/

  }

  static function doAction(claim : entity.Claim, actions : gw.rules.Action) {

/*start00rule*/
claim.skipFromArchiving(DisplayKey.get("Rules.Archive.OpenActivities"))
/*end00rule*/

  }
}
