package rules.EventMessage.EventFired_dir.EFR09000AdminAudit_dir

@gw.rules.RuleName("EFR09500 - Group")
internal class EFR09500Group {
  static function doCondition(messageContext : entity.MessageContext) : boolean {
    
/*start00rule*/
return (messageContext.Root typeis Group)
  and ((messageContext.EventName == "GroupChanged")
    or (messageContext.EventName == "GroupAdded")
    or (messageContext.EventName == "GroupRemoved"))
/*end00rule*/

  }

  static function doAction(messageContext : entity.MessageContext, actions : gw.rules.Action) {

/*start00rule*/
// To disable auditing for this entity type, disable this rule
// To disable auditing for only one of the Event types, comment out the specific line above
gw.acc.adminaudit.util.AdminAuditUtil.doAudit(messageContext)
actions.exit()
/*end00rule*/

  }
}
