package rules.EventMessage.EventFired_dir

@gw.rules.RuleName("TDIC_EFR11000-Sedgwick")
internal class TDIC_EFR11000Sedgwick {
  static function doCondition(messageContext : entity.MessageContext) : boolean {
/*start00rule*/
return messageContext.DestID == 11
/*end00rule*/
}

  static function doAction(messageContext : entity.MessageContext, actions : gw.rules.Action) {
/*start00rule*/
 
/*end00rule*/
  }
}
