package rules.EventMessage.EventFired_dir.TDIC_ALL9000000_dir

@gw.rules.RuleName("TDIC_EFR9100000 - HP Exstream")
internal class TDIC_EFR9100000HPExstream {
  static function doCondition(messageContext : entity.MessageContext) : boolean {
/*start00rule*/
return messageContext.DestID==10
/*end00rule*/
}

  static function doAction(messageContext : entity.MessageContext, actions : gw.rules.Action) {
/*start00rule*/

/*end00rule*/
  }
}
