package rules.Assignment.DefaultGroupClaimAssignmentRules_dir.TDIC_RiskManagement300000_dir

uses acc.onbase.util.LoggerFactory
uses gw.api.locale.DisplayKey

@gw.rules.RuleName("TDIC_DGCA130000 - Group Supervisor")
internal class TDIC_DGCA130000GroupSupervisor {
  static function doCondition(claim : entity.Claim) : boolean {
/*start00rule*/
return claim.AssignedGroup.GroupType != GroupType.TC_CPPLCLCLAIM_TDIC
/*end00rule*/
}

  static function doAction(claim : entity.Claim, actions : gw.rules.Action) {
/*start00rule*/
    var claimAssigned = claim.CurrentAssignment.assign(claim.CurrentAssignment.AssignedGroup, claim.CurrentAssignment.AssignedGroup.Supervisor)
    if (claimAssigned) {
      var logger = LoggerFactory.getLogger("Assignment")
      logger.debug(DisplayKey.get("Rules.Assignment.DefaultGroup.Claim", actions.Rule.DisplayName) + ", " + DisplayKey.get("Rules.Assignment.AssignedUserIs", claim.AssignedUser))
      actions.exit()
    }
/*end00rule*/
  }
}
