package rules.EventMessage.EventFired_dir.TDIC_ALL9000000_dir.TDIC_EFR9300000LawsonGeneralLedger_dir.TDIC_EFR9330000RecoveryReserve_dir

uses org.slf4j.LoggerFactory
uses tdic.cc.common.batch.generalledger.util.TDIC_GeneralLedgerHelper


@gw.rules.RuleName("TDIC_EFR9331000 - Submitted")
internal class TDIC_EFR9331000Submitted {
  static function doCondition(messageContext   :   entity.MessageContext) : boolean {
/*start00rule*/
    var recoveryReserve = messageContext.Root as RecoveryReserve
    return messageContext.EventName == RecoveryReserve.RECOVERYRESERVESTATUSCHANGED_EVENT &&
        recoveryReserve.Status == TransactionStatus.TC_SUBMITTED &&
        TDIC_GeneralLedgerHelper.isValidCostTypeForGL(recoveryReserve)
/*end00rule*/
}

  static function doAction(messageContext   :   entity.MessageContext, actions : gw.rules.Action) {
/*start00rule*/
    var _logger = LoggerFactory.getLogger("TDIC_GeneralLedger")
    var recoveryReserve = messageContext.Root as RecoveryReserve

    _logger.debug(actions.getRule().DisplayName + " triggering -On RecoveryReserve [ PublicID:  ${recoveryReserve.PublicID}, " +
        " amount : ${recoveryReserve.Amount}")

    //Generate transaction payload from RecoveryReserve entity.
    var payloadXML = TDIC_GeneralLedgerHelper.getGLTransactionDTOPayload(recoveryReserve)

    //Send payloadXML
    messageContext.createMessage(payloadXML)
/*end00rule*/
  }
}
