package rules.Closed.ClaimClosed_dir.TDIC_ALL900000_dir


@gw.rules.RuleName("TDIC_CCL910000 - Notify External Systems")
internal class TDIC_CCL910000NotifyExternalSystems {
  static function doCondition(claim   :   entity.Claim) : boolean {
/*start00rule*/
return true /* Always notify */
/*end00rule*/
}

  static function doAction(claim   :   entity.Claim, actions : gw.rules.Action) {
/*start00rule*/
    claim.addEvent("claim_closed")
    claim.getClaimOrginalClosedDate(claim)

/*end00rule*/
  }
}
