package rules.EventMessage.EventFired_dir.TDIC_ALL9000000_dir.EFR7100OnBase_dir

uses acc.onbase.api.si.MessageBuilder
uses entity.Contact
uses gw.api.gx.GXOptions

@gw.rules.RuleDisabled
@gw.rules.RuleName("EFR7140ContactChanged")
internal class EFR7140ContactChanged {
  static function doCondition(messageContext : entity.MessageContext) : boolean {
/*start00rule*/
    return messageContext.EventName == 'ContactChanged'
/*end00rule*/
  }

  static function doAction(messageContext : entity.MessageContext, actions : gw.rules.Action) {
/*start00rule*/
    var contact = messageContext.Root as Contact
    var options = new GXOptions() {:Verbose = true}
    var contactModel = acc.onbase.api.si.model.contactmodel.Contact.create(contact, options)
    if (contactModel.$ShouldSend) {
      var builder = new MessageBuilder(messageContext.EventName)
      builder.addMessagePart('contact', contactModel)
      messageContext.createMessage(builder.Message.asUTFString())
    }
/*end00rule*/
  }
}
