package rules.EventMessage.EventFired_dir.TDIC_ALL9000000_dir.EFR7100OnBase_dir

@gw.rules.RuleDisabled
@gw.rules.RuleName("EFR7155ClaimContactRoleRemoved")
internal class EFR7155ClaimContactRoleRemoved {
  static function doCondition(messageContext : entity.MessageContext) : boolean {
/*start00rule*/
    return true
/*end00rule*/
  }

  static function doAction(messageContext : entity.MessageContext, actions : gw.rules.Action) {
/*start00rule*/
/** When a claimant is changed for an exposure; both ClaimContactRoleAdded and ClaimContactRoleRemoved are triggered.
 Here, the Exposure info is updated to OnBase via "ClaimContactRoleAdded" event with the new Claimant.
 Either events can be used for the update
 **/
/*end00rule*/
  }
}
