package rules.Preupdate.ClaimPreupdate_dir.TDIC_ALL900000_dir

@gw.rules.RuleName("CPU950000 - Property Claimant")
internal class CPU950000PropertyClaimant {
  static function doCondition(claim : entity.Claim) : boolean {
/*start00rule*/
return claim.LossType == LossType.TC_PR
/*end00rule*/
}

  static function doAction(claim : entity.Claim, actions : gw.rules.Action) {
/*start00rule*/

/*end00rule*/
  }
}
