package rules.Preupdate.ClaimPreupdate_dir.TDIC_ALL900000_dir

@gw.rules.RuleName("CPU960000 - Set Minor Contact Indicator")
internal class CPU960000SetMinorContactIndicator {
  static function doCondition(claim : entity.Claim) : boolean {
/*start00rule*/
return true
/*end00rule*/
}

  static function doAction(claim : entity.Claim, actions : gw.rules.Action) {
/*start00rule*/
if (claim.Contacts.hasMatch(\claimContact -> (claimContact.Contact typeis Person)
     and claimContact.Contact.DateOfBirth!=null and claimContact.Contact.DateOfBirth.addYears(18).after(claim.LossDate))) {
  claim.HasMinorContact_TDIC = true
}
/*end00rule*/
  }
}
