type,data-set,entityid,OnBaseDocListViewerType_Ext
UserSettings,0,tdic_user:10504,GuidewireDefault
UserSettings,0,tdic_user:10508,GuidewireDefault
UserSettings,0,tdic_user:10512,GuidewireDefault
UserSettings,0,tdic_user:10517,GuidewireDefault
UserSettings,0,tdic_user:10518,GuidewireDefault
UserSettings,0,tdic_user:10519,GuidewireDefault
UserSettings,0,tdic_user:10520,GuidewireDefault
UserSettings,0,cc:2806,GuidewireDefault
UserSettings,0,tdic_user:10522,GuidewireDefault
UserSettings,0,tdic_user:10523,GuidewireDefault
UserSettings,0,tdic_user:10524,GuidewireDefault
UserSettings,0,tdic_user:10016,GuidewireDefault
UserSettings,0,cc:2711,GuidewireDefault
UserSettings,0,cc:1404,GuidewireDefault
UserSettings,0,tdic_user:10534,GuidewireDefault
UserSettings,0,cc:1503,GuidewireDefault
UserSettings,0,tdic_user:10603,GuidewireDefault
UserSettings,0,tdic_user:10604,GuidewireDefault
UserSettings,0,tdic_user:10605,GuidewireDefault
UserSettings,0,tdic_user:10606,GuidewireDefault
UserSettings,0,tdic_user:10607,GuidewireDefault