package rules.Preupdate.ClaimPreupdate_dir.CPU10000PrimaryDiagnosisCodeChanged_dir

uses gw.api.locale.DisplayKey

@gw.rules.RuleDisabled
@gw.rules.RuleName("CPU10100 - WC")
internal class CPU10100WC {
  static function doCondition(claim : entity.Claim) : boolean {
    
/*start00rule*/
return claim.LossType == TC_WC
/*end00rule*/

  }

  static function doAction(claim : entity.Claim, actions : gw.rules.Action) {

/*start00rule*/
var newCode = claim.ensureClaimInjuryIncident().InjuryDiagnoses.firstWhere(\ i -> i.IsPrimary == true)
var oldCode = (claim.ensureClaimInjuryIncident().InjuryDiagnoses.firstWhere(\ i -> 
                                                            i.getOriginalValue("IsPrimary") == true))

// Add this history event if setting a diagnosis to primary for the first time on a claim
if(oldCode == null and newCode != null)
{
  claim.createCustomHistoryEvent(TC_DATACHANGE, 
      DisplayKey.get("Rules.PreUpdate.Claim.SetPrimaryDiagnosis", newCode.ICDCode.Code))
}

// Add this history event if the primary diagnosis code is changed
if(oldCode != newCode and oldCode !=null) 
{
  claim.createCustomHistoryEvent(TC_DATACHANGE, 
      DisplayKey.get("Rules.PreUpdate.Claim.ChangedPrimaryDiagnosis", oldCode.ICDCode.Code, newCode.ICDCode.Code))
}
actions.exitToNextParent()
/*end00rule*/

  }
}
