package rules.EventMessage.EventFired_dir.TDIC_ALL9000000_dir.TDIC_EFR9100000HPExstream_dir.TDIC_EFR9100002PL_dir


@gw.rules.RuleName("TDIC_EFR9100012 -  Claim Changed")
internal class TDIC_EFR9100012ClaimChanged {
  static function doCondition(messageContext : entity.MessageContext) : boolean {
/*start00rule*/
return messageContext.EventName == 'ClaimChanged'
/*end00rule*/
}

  static function doAction(messageContext : entity.MessageContext, actions : gw.rules.Action) {
/*start00rule*/
 
/*end00rule*/
  }
}
