package rules.Preupdate.ClaimPreupdate_dir.TDIC_ALL900000_dir


@gw.rules.RuleName("CPU920000 - Coverage in question")
internal class CPU920000Coverageinquestion {
  static function doCondition(claim  :  entity.Claim) : boolean {
/*start00rule*/
return claim.isCoverageInQuestion()
or claim.isFieldChanged("CoverageInQuestion")
/*end00rule*/
}

  static function doAction(claim  :  entity.Claim, actions : gw.rules.Action) {
/*start00rule*/
 
/*end00rule*/
  }
}
