package rules.Preupdate.ClaimPreupdate_dir.TDIC_ALL900000_dir


@gw.rules.RuleName("CPU930000 Set Reinsurance Reportable")
internal class CPU930000SetReinsuranceReportable {
  static function doCondition(claim  :  entity.Claim) : boolean {
/*start00rule*/
return claim.Type_TDIC == ClaimType_TDIC.TC_PROFESSIONALLIABILITY
        and (claim.ResultType_TDIC == ResultType_TDIC.TC_21_TDIC
        or claim.ResultType_TDIC == ResultType_TDIC.TC_28_TDIC
        or claim.ResultType_TDIC == ResultType_TDIC.TC_29_TDIC
        or claim.ReinsuranceReportable)
/*end00rule*/
}

  static function doAction(claim  :  entity.Claim, actions : gw.rules.Action) {
/*start00rule*/
claim.markClaimForReinsurance()
    if(!claim.Activities.hasMatch(\ a -> a.ActivityPattern.Code == "invoice_not_auto_approved")){
      var activity = claim.createActivityFromPattern(null,ActivityPattern.finder.getActivityPatternByCode("invoice_not_auto_approved"))
      activity.Subject="Reinsurance Reportable is set to Yes"
      var claimExecutive = claim.getClaimExecutive()
      if(claimExecutive != null){
     activity.assign(claimExecutive.Group,claimExecutive.User)}
    } 
/*end00rule*/
  }
}
